[
	{
		"Update": [
			"Player",
      "Enemies",
			"Creatures",
			"Characters",
			"Objects",
			"World"
		],

		"Draw": [
			"Objects",
			"Characters",
			"Creatures",
      "Enemies",
			"Player",
			"World"
		]
	}
]
